# Blender v2.65 (sub 0) OBJ File: 'text.blend'
# www.blender.org
o Text.002_Mesh.021
v 2.282032 -0.300000 -0.436156
v 2.271062 -0.300000 -0.279947
v 2.268192 -0.300000 -0.278655
v 2.056714 -0.300000 -0.264590
v 2.057591 -0.300000 -0.215445
v 2.162681 -0.300000 -0.219833
v 2.156099 -0.300000 -0.105968
v 2.061979 -0.300000 -0.095217
v 2.061979 -0.300000 -0.031812
v 2.064612 -0.300000 -0.030935
v 2.247943 -0.300000 -0.046608
v 2.252413 -0.300000 -0.045415
v 2.240566 -0.300000 0.104651
v 1.955134 -0.300000 0.137341
v 1.905112 -0.300000 -0.415753
v 1.782690 -0.300000 -0.587977
v 1.857064 -0.300000 0.072620
v 1.701953 -0.300000 0.172663
v 1.643813 -0.300000 -0.240676
v 1.644788 -0.300000 -0.240871
v 1.645130 -0.300000 -0.241115
v 1.645373 -0.300000 -0.241456
v 1.645568 -0.300000 -0.242431
v 1.643813 -0.300000 -0.242431
v 1.567903 -0.300000 -0.029179
v 1.461277 -0.300000 -0.019526
v 1.372642 -0.300000 -0.232558
v 1.370886 -0.300000 -0.232558
v 1.364524 -0.300000 -0.184072
v 1.366060 -0.300000 -0.184072
v 1.365889 -0.300000 -0.183219
v 1.365676 -0.300000 -0.182920
v 1.365377 -0.300000 -0.182707
v 1.364524 -0.300000 -0.182536
v 1.338635 -0.300000 0.171128
v 1.173870 -0.300000 0.111452
v 1.241663 -0.300000 -0.449100
v 1.416082 -0.300000 -0.529838
v 1.508227 -0.300000 -0.305397
v 1.560882 -0.300000 -0.498684
v 0.999013 -0.300000 -0.544318
v 1.112440 -0.300000 -0.082931
v 1.139206 -0.300000 -0.004168
v 0.997916 -0.300000 0.065599
v 0.968736 -0.300000 -0.050680
v 0.910816 -0.300000 -0.032909
v 0.899408 -0.300000 0.093023
v 0.749781 -0.300000 0.052435
v 0.789784 -0.300000 -0.216102
v 0.825691 -0.300000 -0.508995
v 0.928368 -0.300000 -0.253401
v 0.923843 -0.300000 -0.225263
v 0.916520 -0.300000 -0.136244
v 0.946626 -0.300000 -0.141455
v 0.950307 -0.300000 -0.143484
v 0.940206 -0.300000 -0.192642
v 0.659829 -0.300000 -0.425845
v 0.644910 -0.300000 -0.223124
v 0.627394 -0.300000 -0.222914
v 0.497669 -0.300000 -0.181124
v 0.439337 -0.300000 -0.119789
v 0.419153 -0.300000 -0.037516
v 0.425101 -0.300000 -0.009848
v 0.431878 -0.300000 0.000494
v 0.441190 -0.300000 0.008508
v 0.467420 -0.300000 0.017552
v 0.520075 -0.300000 0.008386
v 0.524920 -0.300000 0.004784
v 0.526094 -0.300000 0.002787
v 0.523366 -0.300000 -0.117815
v 0.523670 -0.300000 -0.118608
v 0.524584 -0.300000 -0.119232
v 0.526108 -0.300000 -0.119687
v 0.696248 -0.300000 -0.113208
v 0.687253 -0.300000 0.126810
v 0.577337 -0.300000 0.112988
v 0.451665 -0.300000 0.176873
v 0.408865 -0.300000 0.180632
v 0.333169 -0.300000 0.153783
v 0.256582 -0.300000 0.046950
v 0.258946 -0.300000 -0.131062
v 0.339798 -0.300000 -0.282077
v 0.472247 -0.300000 -0.393594
v 0.614949 -0.300000 -0.429424
v 0.025779 -0.300000 -0.524792
v 0.037187 -0.300000 -0.339842
v -0.103883 -0.300000 -0.320097
v -0.087648 -0.300000 0.084686
v -0.237714 -0.300000 0.138877
v -0.250219 -0.300000 -0.297938
v -0.407086 -0.300000 -0.263273
v -0.439118 -0.300000 -0.471918
v -0.704805 -0.300000 -0.390083
v -0.616818 -0.300000 -0.396686
v -0.563566 -0.300000 -0.378775
v -0.542892 -0.300000 -0.359807
v -0.534707 -0.300000 -0.340238
v -0.532416 -0.300000 -0.295140
v -0.564173 -0.300000 -0.212593
v -0.622093 -0.300000 -0.140851
v -0.454476 -0.300000 -0.001097
v -0.538942 -0.300000 0.100044
v -0.687473 -0.300000 -0.055507
v -0.659829 -0.300000 0.093462
v -0.801119 -0.300000 0.050022
v -0.826569 -0.300000 -0.207986
v -0.831549 -0.300000 -0.246561
v -0.837758 -0.300000 -0.293769
v -0.829997 -0.300000 -0.303455
v -0.727402 -0.300000 -0.238701
v -0.721887 -0.300000 -0.207255
v -0.712922 -0.300000 -0.172225
v -0.661479 -0.300000 -0.230469
v -0.656556 -0.300000 -0.245923
v -0.656396 -0.300000 -0.250471
v -0.660322 -0.300000 -0.263205
v -0.663711 -0.300000 -0.266959
v -0.665753 -0.300000 -0.268265
v -0.673267 -0.300000 -0.269896
v -0.685420 -0.300000 -0.267360
v -0.713430 -0.300000 -0.250247
v -1.004936 -0.300000 -0.544318
v -0.891509 -0.300000 -0.082931
v -0.864743 -0.300000 -0.004168
v -1.006033 -0.300000 0.065599
v -1.035213 -0.300000 -0.050680
v -1.093133 -0.300000 -0.032909
v -1.104541 -0.300000 0.093023
v -1.254169 -0.300000 0.052435
v -1.221236 -0.300000 -0.159838
v -1.178258 -0.300000 -0.508995
v -1.075581 -0.300000 -0.253401
v -1.085332 -0.300000 -0.176661
v -1.087429 -0.300000 -0.136244
v -1.079847 -0.300000 -0.136628
v -1.055385 -0.300000 -0.142428
v -1.053642 -0.300000 -0.143484
v -1.290149 -0.300000 -0.524792
v -1.278741 -0.300000 -0.339842
v -1.419811 -0.300000 -0.320097
v -1.403576 -0.300000 0.084686
v -1.553642 -0.300000 0.138877
v -1.566147 -0.300000 -0.297938
v -1.723014 -0.300000 -0.263273
v -1.755046 -0.300000 -0.471918
v -1.828763 -0.300000 -0.501975
v -1.770623 -0.300000 -0.487494
v -1.819109 -0.300000 -0.355200
v -1.824329 -0.300000 -0.356741
v -1.971424 -0.300000 -0.357503
v -2.017222 -0.300000 -0.338087
v -2.063076 -0.300000 -0.287846
v -2.070701 -0.300000 -0.263444
v -2.070755 -0.300000 -0.261518
v -2.067708 -0.300000 -0.254522
v -2.065325 -0.300000 -0.252249
v -2.062369 -0.300000 -0.250792
v -2.051207 -0.300000 -0.250318
v -1.933048 -0.300000 -0.283060
v -1.847496 -0.300000 -0.275797
v -1.834918 -0.300000 -0.270847
v -1.806933 -0.300000 -0.250151
v -1.777205 -0.300000 -0.192190
v -1.776169 -0.300000 -0.174833
v -1.845313 -0.300000 0.034102
v -2.001426 -0.300000 0.195261
v -2.233984 -0.300000 0.263054
v -2.300168 -0.300000 0.253638
v -2.307701 -0.300000 0.249671
v -2.312527 -0.300000 0.093901
v -2.295428 -0.300000 0.096698
v -2.116302 -0.300000 0.069172
v -1.973831 -0.300000 -0.018124
v -1.941745 -0.300000 -0.064700
v -1.929465 -0.300000 -0.119351
v -1.934360 -0.300000 -0.137752
v -1.940990 -0.300000 -0.145602
v -1.950315 -0.300000 -0.149916
v -1.962332 -0.300000 -0.150697
v -2.051448 -0.300000 -0.122642
v -2.112317 -0.300000 -0.125997
v -2.157493 -0.300000 -0.154297
v -2.171018 -0.300000 -0.172883
v -2.188789 -0.300000 -0.221150
v -2.190276 -0.300000 -0.238896
v -2.167727 -0.300000 -0.342255
v -2.119375 -0.300000 -0.416429
v -2.024913 -0.300000 -0.481947
v 2.282032 -0.300000 -0.436156
v 2.271062 -0.300000 -0.279947
v 2.268192 -0.300000 -0.278655
v 2.056714 -0.300000 -0.264590
v 2.057591 -0.300000 -0.215445
v 2.162681 -0.300000 -0.219833
v 2.156099 -0.300000 -0.105968
v 2.061979 -0.300000 -0.095217
v 2.061979 -0.300000 -0.031812
v 2.064612 -0.300000 -0.030935
v 2.247943 -0.300000 -0.046608
v 2.252413 -0.300000 -0.045415
v 2.240566 -0.300000 0.104651
v 1.955134 -0.300000 0.137341
v 1.905112 -0.300000 -0.415753
v 1.782690 -0.300000 -0.587977
v 1.857064 -0.300000 0.072620
v 1.701953 -0.300000 0.172663
v 1.643813 -0.300000 -0.240676
v 1.644788 -0.300000 -0.240871
v 1.645130 -0.300000 -0.241115
v 1.645373 -0.300000 -0.241456
v 1.645568 -0.300000 -0.242431
v 1.643813 -0.300000 -0.242431
v 1.567903 -0.300000 -0.029179
v 1.461277 -0.300000 -0.019526
v 1.372642 -0.300000 -0.232558
v 1.370886 -0.300000 -0.232558
v 1.364524 -0.300000 -0.184072
v 1.366060 -0.300000 -0.184072
v 1.365889 -0.300000 -0.183219
v 1.365676 -0.300000 -0.182920
v 1.365377 -0.300000 -0.182707
v 1.364524 -0.300000 -0.182536
v 1.338635 -0.300000 0.171128
v 1.173870 -0.300000 0.111452
v 1.241663 -0.300000 -0.449100
v 1.416082 -0.300000 -0.529838
v 1.508227 -0.300000 -0.305397
v 1.560882 -0.300000 -0.498684
v 0.999013 -0.300000 -0.544318
v 1.112440 -0.300000 -0.082931
v 1.139206 -0.300000 -0.004168
v 0.997916 -0.300000 0.065599
v 0.968736 -0.300000 -0.050680
v 0.910816 -0.300000 -0.032909
v 0.899408 -0.300000 0.093023
v 0.749781 -0.300000 0.052435
v 0.789784 -0.300000 -0.216102
v 0.825691 -0.300000 -0.508995
v 0.928368 -0.300000 -0.253401
v 0.923843 -0.300000 -0.225263
v 0.916520 -0.300000 -0.136244
v 0.946626 -0.300000 -0.141455
v 0.950307 -0.300000 -0.143484
v 0.940206 -0.300000 -0.192642
v 0.659829 -0.300000 -0.425845
v 0.644910 -0.300000 -0.223124
v 0.627394 -0.300000 -0.222914
v 0.497669 -0.300000 -0.181124
v 0.439337 -0.300000 -0.119789
v 0.419153 -0.300000 -0.037516
v 0.425101 -0.300000 -0.009848
v 0.431878 -0.300000 0.000494
v 0.441190 -0.300000 0.008508
v 0.467420 -0.300000 0.017552
v 0.520075 -0.300000 0.008386
v 0.524920 -0.300000 0.004784
v 0.526094 -0.300000 0.002787
v 0.523366 -0.300000 -0.117815
v 0.523670 -0.300000 -0.118608
v 0.524584 -0.300000 -0.119232
v 0.526108 -0.300000 -0.119687
v 0.696248 -0.300000 -0.113208
v 0.687253 -0.300000 0.126810
v 0.577337 -0.300000 0.112988
v 0.451665 -0.300000 0.176873
v 0.408865 -0.300000 0.180632
v 0.333169 -0.300000 0.153783
v 0.256582 -0.300000 0.046950
v 0.258946 -0.300000 -0.131062
v 0.339798 -0.300000 -0.282077
v 0.472247 -0.300000 -0.393594
v 0.614949 -0.300000 -0.429424
v 0.025779 -0.300000 -0.524792
v 0.037187 -0.300000 -0.339842
v -0.103883 -0.300000 -0.320097
v -0.087648 -0.300000 0.084686
v -0.237714 -0.300000 0.138877
v -0.250219 -0.300000 -0.297938
v -0.407086 -0.300000 -0.263273
v -0.439118 -0.300000 -0.471918
v -0.704805 -0.300000 -0.390083
v -0.616818 -0.300000 -0.396686
v -0.563566 -0.300000 -0.378775
v -0.542892 -0.300000 -0.359807
v -0.534707 -0.300000 -0.340238
v -0.532416 -0.300000 -0.295140
v -0.564173 -0.300000 -0.212593
v -0.622093 -0.300000 -0.140851
v -0.454476 -0.300000 -0.001097
v -0.538942 -0.300000 0.100044
v -0.687473 -0.300000 -0.055507
v -0.659829 -0.300000 0.093462
v -0.801119 -0.300000 0.050022
v -0.826569 -0.300000 -0.207986
v -0.831549 -0.300000 -0.246561
v -0.837758 -0.300000 -0.293769
v -0.829997 -0.300000 -0.303455
v -0.727402 -0.300000 -0.238701
v -0.721887 -0.300000 -0.207255
v -0.712922 -0.300000 -0.172225
v -0.661479 -0.300000 -0.230469
v -0.656556 -0.300000 -0.245923
v -0.656396 -0.300000 -0.250471
v -0.660322 -0.300000 -0.263205
v -0.663711 -0.300000 -0.266959
v -0.665753 -0.300000 -0.268265
v -0.673267 -0.300000 -0.269896
v -0.685420 -0.300000 -0.267360
v -0.713430 -0.300000 -0.250247
v -1.004936 -0.300000 -0.544318
v -0.891509 -0.300000 -0.082931
v -0.864743 -0.300000 -0.004168
v -1.006033 -0.300000 0.065599
v -1.035213 -0.300000 -0.050680
v -1.093133 -0.300000 -0.032909
v -1.104541 -0.300000 0.093023
v -1.254169 -0.300000 0.052435
v -1.221236 -0.300000 -0.159838
v -1.178258 -0.300000 -0.508995
v -1.075581 -0.300000 -0.253401
v -1.085332 -0.300000 -0.176661
v -1.087429 -0.300000 -0.136244
v -1.079847 -0.300000 -0.136628
v -1.055385 -0.300000 -0.142428
v -1.053642 -0.300000 -0.143484
v -1.290149 -0.300000 -0.524792
v -1.278741 -0.300000 -0.339842
v -1.419811 -0.300000 -0.320097
v -1.403576 -0.300000 0.084686
v -1.553642 -0.300000 0.138877
v -1.566147 -0.300000 -0.297938
v -1.723014 -0.300000 -0.263273
v -1.755046 -0.300000 -0.471918
v -1.828763 -0.300000 -0.501975
v -1.770623 -0.300000 -0.487494
v -1.819109 -0.300000 -0.355200
v -1.824329 -0.300000 -0.356741
v -1.971424 -0.300000 -0.357503
v -2.017222 -0.300000 -0.338087
v -2.063076 -0.300000 -0.287846
v -2.070701 -0.300000 -0.263444
v -2.070755 -0.300000 -0.261518
v -2.067708 -0.300000 -0.254522
v -2.065325 -0.300000 -0.252249
v -2.062369 -0.300000 -0.250792
v -2.051207 -0.300000 -0.250318
v -1.933048 -0.300000 -0.283060
v -1.847496 -0.300000 -0.275797
v -1.834918 -0.300000 -0.270847
v -1.806933 -0.300000 -0.250151
v -1.777205 -0.300000 -0.192190
v -1.776169 -0.300000 -0.174833
v -1.845313 -0.300000 0.034102
v -2.001426 -0.300000 0.195261
v -2.233984 -0.300000 0.263054
v -2.300168 -0.300000 0.253638
v -2.307701 -0.300000 0.249671
v -2.312527 -0.300000 0.093901
v -2.295428 -0.300000 0.096698
v -2.116302 -0.300000 0.069172
v -1.973831 -0.300000 -0.018124
v -1.941745 -0.300000 -0.064700
v -1.929465 -0.300000 -0.119351
v -1.934360 -0.300000 -0.137752
v -1.940990 -0.300000 -0.145602
v -1.950315 -0.300000 -0.149916
v -1.962332 -0.300000 -0.150697
v -2.051448 -0.300000 -0.122642
v -2.112317 -0.300000 -0.125997
v -2.157493 -0.300000 -0.154297
v -2.171018 -0.300000 -0.172883
v -2.188789 -0.300000 -0.221150
v -2.190276 -0.300000 -0.238896
v -2.167727 -0.300000 -0.342255
v -2.119375 -0.300000 -0.416429
v -2.024913 -0.300000 -0.481947
v 2.282032 0.000000 -0.436156
v 2.271062 0.000000 -0.279947
v 2.268192 0.000000 -0.278655
v 2.056714 0.000000 -0.264590
v 2.057591 0.000000 -0.215445
v 2.162681 0.000000 -0.219833
v 2.156099 0.000000 -0.105968
v 2.061979 0.000000 -0.095217
v 2.061979 0.000000 -0.031812
v 2.064612 0.000000 -0.030935
v 2.247943 0.000000 -0.046608
v 2.252413 0.000000 -0.045415
v 2.240566 0.000000 0.104651
v 1.955134 0.000000 0.137341
v 1.905112 0.000000 -0.415753
v 1.782690 0.000000 -0.587977
v 1.857064 0.000000 0.072620
v 1.701953 0.000000 0.172663
v 1.643813 0.000000 -0.240676
v 1.644788 0.000000 -0.240871
v 1.645130 0.000000 -0.241115
v 1.645373 0.000000 -0.241456
v 1.645568 0.000000 -0.242431
v 1.643813 0.000000 -0.242431
v 1.567903 0.000000 -0.029179
v 1.461277 0.000000 -0.019526
v 1.372642 0.000000 -0.232558
v 1.370886 0.000000 -0.232558
v 1.364524 0.000000 -0.184072
v 1.366060 0.000000 -0.184072
v 1.365889 0.000000 -0.183219
v 1.365676 0.000000 -0.182920
v 1.365377 0.000000 -0.182707
v 1.364524 0.000000 -0.182536
v 1.338635 0.000000 0.171128
v 1.173870 0.000000 0.111452
v 1.241663 0.000000 -0.449100
v 1.416082 0.000000 -0.529838
v 1.508227 0.000000 -0.305397
v 1.560882 0.000000 -0.498684
v 0.999013 0.000000 -0.544318
v 1.112440 0.000000 -0.082931
v 1.139206 0.000000 -0.004168
v 0.997916 0.000000 0.065599
v 0.968736 0.000000 -0.050680
v 0.910816 0.000000 -0.032909
v 0.899408 0.000000 0.093023
v 0.749781 0.000000 0.052435
v 0.789784 0.000000 -0.216102
v 0.825691 0.000000 -0.508995
v 0.928368 0.000000 -0.253401
v 0.923843 0.000000 -0.225263
v 0.916520 0.000000 -0.136244
v 0.946626 0.000000 -0.141455
v 0.950307 0.000000 -0.143484
v 0.940206 0.000000 -0.192642
v 0.659829 0.000000 -0.425845
v 0.644910 0.000000 -0.223124
v 0.627394 0.000000 -0.222914
v 0.497669 0.000000 -0.181124
v 0.439337 0.000000 -0.119789
v 0.419153 0.000000 -0.037516
v 0.425101 0.000000 -0.009848
v 0.431878 0.000000 0.000494
v 0.441190 0.000000 0.008508
v 0.467420 0.000000 0.017552
v 0.520075 0.000000 0.008386
v 0.524920 0.000000 0.004784
v 0.526094 0.000000 0.002787
v 0.523366 0.000000 -0.117815
v 0.523670 0.000000 -0.118608
v 0.524584 0.000000 -0.119232
v 0.526108 0.000000 -0.119687
v 0.696248 0.000000 -0.113208
v 0.687253 0.000000 0.126810
v 0.577337 0.000000 0.112988
v 0.451665 0.000000 0.176873
v 0.408865 0.000000 0.180632
v 0.333169 0.000000 0.153783
v 0.256582 0.000000 0.046950
v 0.258946 0.000000 -0.131062
v 0.339798 0.000000 -0.282077
v 0.472247 0.000000 -0.393594
v 0.614949 0.000000 -0.429424
v 0.025779 0.000000 -0.524792
v 0.037187 0.000000 -0.339842
v -0.103883 0.000000 -0.320097
v -0.087648 0.000000 0.084686
v -0.237714 0.000000 0.138877
v -0.250219 0.000000 -0.297938
v -0.407086 0.000000 -0.263273
v -0.439118 0.000000 -0.471918
v -0.704805 0.000000 -0.390083
v -0.616818 0.000000 -0.396686
v -0.563566 0.000000 -0.378775
v -0.542892 0.000000 -0.359807
v -0.534707 0.000000 -0.340238
v -0.532416 0.000000 -0.295140
v -0.564173 0.000000 -0.212593
v -0.622093 0.000000 -0.140851
v -0.454476 0.000000 -0.001097
v -0.538942 0.000000 0.100044
v -0.687473 0.000000 -0.055507
v -0.659829 0.000000 0.093462
v -0.801119 0.000000 0.050022
v -0.826569 0.000000 -0.207986
v -0.831549 0.000000 -0.246561
v -0.837758 0.000000 -0.293769
v -0.829997 0.000000 -0.303455
v -0.727402 0.000000 -0.238701
v -0.721887 0.000000 -0.207255
v -0.712922 0.000000 -0.172225
v -0.661479 0.000000 -0.230469
v -0.656556 0.000000 -0.245923
v -0.656396 0.000000 -0.250471
v -0.660322 0.000000 -0.263205
v -0.663711 0.000000 -0.266959
v -0.665753 0.000000 -0.268265
v -0.673267 0.000000 -0.269896
v -0.685420 0.000000 -0.267360
v -0.713430 0.000000 -0.250247
v -1.004936 0.000000 -0.544318
v -0.891509 0.000000 -0.082931
v -0.864743 0.000000 -0.004168
v -1.006033 0.000000 0.065599
v -1.035213 0.000000 -0.050680
v -1.093133 0.000000 -0.032909
v -1.104541 0.000000 0.093023
v -1.254169 0.000000 0.052435
v -1.221236 0.000000 -0.159838
v -1.178258 0.000000 -0.508995
v -1.075581 0.000000 -0.253401
v -1.085332 0.000000 -0.176661
v -1.087429 0.000000 -0.136244
v -1.079847 0.000000 -0.136628
v -1.055385 0.000000 -0.142428
v -1.053642 0.000000 -0.143484
v -1.290149 0.000000 -0.524792
v -1.278741 0.000000 -0.339842
v -1.419811 0.000000 -0.320097
v -1.403576 0.000000 0.084686
v -1.553642 0.000000 0.138877
v -1.566147 0.000000 -0.297938
v -1.723014 0.000000 -0.263273
v -1.755046 0.000000 -0.471918
v -1.828763 0.000000 -0.501975
v -1.770623 0.000000 -0.487494
v -1.819109 0.000000 -0.355200
v -1.824329 0.000000 -0.356741
v -1.971424 0.000000 -0.357503
v -2.017222 0.000000 -0.338087
v -2.063076 0.000000 -0.287846
v -2.070701 0.000000 -0.263444
v -2.070755 0.000000 -0.261518
v -2.067708 0.000000 -0.254522
v -2.065325 0.000000 -0.252249
v -2.062369 0.000000 -0.250792
v -2.051207 0.000000 -0.250318
v -1.933048 0.000000 -0.283060
v -1.847496 0.000000 -0.275797
v -1.834918 0.000000 -0.270847
v -1.806933 0.000000 -0.250151
v -1.777205 0.000000 -0.192190
v -1.776169 0.000000 -0.174833
v -1.845313 0.000000 0.034102
v -2.001426 0.000000 0.195261
v -2.233984 0.000000 0.263054
v -2.300168 0.000000 0.253638
v -2.307701 0.000000 0.249671
v -2.312527 0.000000 0.093901
v -2.295428 0.000000 0.096698
v -2.116302 0.000000 0.069172
v -1.973831 0.000000 -0.018124
v -1.941745 0.000000 -0.064700
v -1.929465 0.000000 -0.119351
v -1.934360 0.000000 -0.137752
v -1.940990 0.000000 -0.145602
v -1.950315 0.000000 -0.149916
v -1.962332 0.000000 -0.150697
v -2.051448 0.000000 -0.122642
v -2.112317 0.000000 -0.125997
v -2.157493 0.000000 -0.154297
v -2.171018 0.000000 -0.172883
v -2.188789 0.000000 -0.221150
v -2.190276 0.000000 -0.238896
v -2.167727 0.000000 -0.342255
v -2.119375 0.000000 -0.416429
v -2.024913 0.000000 -0.481947
vn 0.000000 -1.000000 -0.000000
vn 0.946821 0.000000 -0.321762
vn -0.979534 0.000000 0.201280
vn 0.079491 0.000000 -0.996836
vn -0.988179 0.000000 -0.153307
vn 0.983215 0.000000 -0.182452
vn -0.999520 0.000000 0.030972
vn 0.594613 0.000000 -0.804012
vn -0.980601 0.000000 -0.196012
vn -0.466002 0.000000 0.884784
vn -0.955608 0.000000 0.294642
vn -0.992509 0.000000 -0.122169
vn 0.066364 0.000000 0.997795
vn 0.813777 0.000000 0.581177
vn -0.988420 0.000000 0.151745
vn 0.778076 0.000000 0.628171
vn 0.410456 0.000000 0.911880
vn 0.366201 0.000000 -0.930536
vn 0.453156 0.000000 0.891431
vn -0.952825 0.000000 -0.303519
vn 0.521361 0.000000 0.853336
vn 0.991500 0.000000 0.130106
vn -0.808578 0.000000 0.588389
vn 0.997303 0.000000 0.073394
vn -0.938416 0.000000 0.345509
vn 0.997332 0.000000 0.073006
vn -0.420071 0.000000 -0.907491
vn 0.767539 0.000000 0.641003
vn -0.996509 0.000000 0.083486
vn 0.204320 0.000000 0.978904
vn 0.995922 0.000000 0.090222
vn 0.971086 0.000000 -0.238731
vn -0.881600 0.000000 -0.471997
vn -0.999591 0.000000 0.028617
vn -0.966390 0.000000 0.257079
vn -0.113004 0.000000 -0.993594
vn 0.306627 0.000000 0.951830
vn 0.977664 0.000000 -0.210175
vn -0.054054 0.000000 -0.998538
vn -0.530868 0.000000 0.847455
vn -0.230710 0.000000 -0.973022
vn 0.836423 0.000000 -0.548085
vn -0.837725 0.000000 -0.546093
vn 0.113481 0.000000 0.993540
vn 0.293322 0.000000 0.956014
vn 0.257850 0.000000 -0.966185
vn 0.339644 0.000000 0.940554
vn -0.980656 0.000000 0.195739
vn 0.933314 0.000000 0.359062
vn -0.151887 0.000000 -0.988398
vn -0.999382 0.000000 -0.035155
vn 0.724623 0.000000 0.689145
vn -0.812733 0.000000 0.582636
vn -0.990252 0.000000 0.139287
vn 0.581231 0.000000 0.813739
vn 0.038053 0.000000 -0.999276
vn 0.995922 0.000000 0.090223
vn 0.316240 0.000000 -0.948679
vn 0.339645 0.000000 0.940554
vn 0.718262 0.000000 0.695773
vn -0.569021 0.000000 -0.822323
vn 0.987314 0.000000 0.158778
vn -0.763929 0.000000 0.645301
vn 0.996634 0.000000 0.081978
vn 0.000000 0.000000 1.000000
vn 0.636978 0.000000 0.770882
vn 0.998657 0.000000 0.051800
vn -0.074836 0.000000 -0.997196
vn -0.991768 0.000000 0.128051
vn -0.055046 0.000000 0.998484
vn 0.090166 0.000000 0.995927
vn 0.279861 0.000000 0.960041
vn 0.998103 0.000000 -0.061568
vn -0.933467 0.000000 -0.358663
vn -0.522455 0.000000 -0.852667
vn 0.980619 0.000000 0.195925
vn -0.261800 0.000000 0.965122
vn -0.999912 0.000000 -0.013282
vn -0.991463 0.000000 0.130391
vn 0.138618 0.000000 0.990346
vn 0.998223 0.000000 -0.059586
vn 0.000000 -0.000000 -1.000000
vn 0.968780 0.000000 -0.247924
vn -0.742330 0.000000 0.670034
vn 0.916823 0.000000 -0.399293
vn -0.171495 0.000000 -0.985185
vn 0.442753 0.000000 0.896644
vn 0.676044 0.000000 -0.736861
vn 0.542018 0.000000 0.840366
vn -0.518121 0.000000 -0.855307
vn -0.124766 0.000000 0.992186
vn -0.823500 0.000000 -0.567317
vn -0.196116 0.000000 -0.980581
vn -0.780367 0.000000 -0.625322
vn -0.569925 0.000000 -0.821697
vn 0.949364 0.000000 0.314179
vn -0.749512 0.000000 -0.661991
vn 0.998103 0.000000 -0.061567
vn 0.738626 0.000000 0.674116
vn -0.101574 0.000000 -0.994828
vn -0.992766 0.000000 -0.120064
vn 1.000000 0.000000 0.000000
vn -0.989086 0.000000 -0.147340
vn 0.993722 0.000000 -0.111880
vn 0.161446 0.000000 -0.986882
vn -0.170541 0.000000 -0.985351
vn -0.596602 0.000000 -0.802537
vn 0.999299 0.000000 0.037451
vn 0.196060 0.000000 0.980592
vn 0.012002 0.000000 0.999928
vn 0.997543 0.000000 0.070052
vn 0.984965 0.000000 -0.172753
vn -0.199693 0.000000 -0.979859
vn -0.969927 0.000000 0.243397
vn 0.300288 0.000000 0.953849
vn -0.538787 0.000000 0.842442
vn 0.652302 0.000000 -0.757959
vn -0.563717 0.000000 -0.825968
vn 0.087483 0.000000 0.996166
vn 0.113784 0.000000 0.993505
vn 0.998334 0.000000 0.057707
vn 0.690237 0.000000 -0.723583
vn -0.977021 0.000000 -0.213145
vn 0.922558 0.000000 -0.385859
vn -0.988420 0.000000 0.151744
vn 0.999197 0.000000 -0.040076
vn -0.140848 0.000000 0.990031
vn 0.942092 0.000000 0.335354
vn -0.340537 0.000000 0.940231
vn -0.334284 0.000000 0.942472
vn -0.243522 0.000000 -0.969895
vn -0.283290 0.000000 0.959034
vn -0.293877 0.000000 0.955843
vn 0.971200 0.000000 0.238267
vn -0.212207 0.000000 0.977225
vn -0.041717 0.000000 -0.999129
vn 0.084590 0.000000 -0.996416
vn -0.050577 0.000000 -0.998720
vn -0.992569 0.000000 -0.121685
vn 0.390325 0.000000 0.920677
vn 0.325963 0.000000 -0.945382
vn -0.286030 0.000000 -0.958221
vn 0.999619 0.000000 0.027597
vn -0.923274 0.000000 0.384143
vn -0.005179 0.000000 0.999987
vn 0.241674 0.000000 -0.970358
vn 0.042415 0.000000 -0.999100
vn 0.954479 0.000000 0.298278
vn 0.925071 0.000000 -0.379794
vn 0.938927 0.000000 0.344118
vn -0.861982 0.000000 -0.506938
vn 0.946821 0.000000 -0.321761
vn 0.992024 0.000000 0.126052
vn -0.581238 0.000000 -0.813733
vn -0.373446 0.000000 -0.927652
vn -0.999744 0.000000 0.022620
vn -0.995170 0.000000 0.098163
vn -0.644070 0.000000 -0.764966
vn -0.267036 0.000000 -0.963687
vn 0.889789 0.000000 -0.456372
vn -0.064773 0.000000 0.997900
vn 0.215773 0.000000 0.976443
vn -0.419963 0.000000 0.907541
vn -0.981543 0.000000 0.191244
vn -0.482817 0.000000 -0.875721
vn -0.964840 0.000000 -0.262839
vn -0.813709 0.000000 -0.581272
vn -0.085179 0.000000 -0.996366
vn 0.000000 0.000000 0.000000
vn 0.000000 1.000000 0.000000
vn 0.442033 0.000000 -0.896999
vn 0.640382 0.000000 -0.768056
vn 0.999841 0.000000 -0.017855
vn 0.998712 0.000000 -0.050745
vn 0.318796 0.000000 -0.947823
vn -0.995935 0.000000 0.090073
vn -0.723240 0.000000 0.690597
vn 0.215774 0.000000 0.976443
vn -0.975672 0.000000 -0.219236
vn 0.996898 0.000000 0.078702
s off
f 73//1 74//1 75//1
f 37//1 38//1 39//1
f 6//1 7//1 5//1
f 129//1 127//1 128//1
f 132//1 133//1 130//1
f 145//1 143//1 144//1
f 103//1 104//1 105//1
f 146//1 147//1 148//1
f 106//1 107//1 111//1
f 47//1 48//1 46//1
f 90//1 91//1 92//1
f 50//1 52//1 49//1
f 73//1 75//1 76//1
f 79//1 80//1 81//1
f 79//1 81//1 82//1
f 70//1 71//1 72//1
f 70//1 72//1 73//1
f 79//1 82//1 83//1
f 57//1 58//1 84//1
f 84//1 58//1 83//1
f 79//1 77//1 78//1
f 79//1 76//1 77//1
f 58//1 59//1 83//1
f 59//1 60//1 83//1
f 60//1 61//1 83//1
f 83//1 61//1 79//1
f 61//1 62//1 79//1
f 62//1 63//1 79//1
f 63//1 64//1 79//1
f 64//1 65//1 79//1
f 79//1 65//1 76//1
f 65//1 66//1 76//1
f 66//1 67//1 76//1
f 67//1 68//1 76//1
f 73//1 69//1 70//1
f 76//1 69//1 73//1
f 68//1 69//1 76//1
f 29//1 30//1 31//1
f 34//1 35//1 36//1
f 17//1 18//1 19//1
f 34//1 36//1 37//1
f 39//1 40//1 16//1
f 25//1 26//1 27//1
f 24//1 25//1 27//1
f 29//1 31//1 32//1
f 29//1 32//1 33//1
f 29//1 33//1 34//1
f 17//1 19//1 20//1
f 29//1 34//1 37//1
f 28//1 29//1 37//1
f 28//1 37//1 39//1
f 27//1 28//1 39//1
f 24//1 27//1 39//1
f 24//1 39//1 16//1
f 24//1 16//1 23//1
f 16//1 17//1 23//1
f 23//1 17//1 22//1
f 22//1 17//1 21//1
f 21//1 17//1 20//1
f 7//1 8//1 5//1
f 12//1 13//1 14//1
f 15//1 1//1 2//1
f 8//1 9//1 5//1
f 11//1 12//1 14//1
f 10//1 11//1 14//1
f 9//1 10//1 14//1
f 9//1 14//1 15//1
f 9//1 15//1 5//1
f 5//1 15//1 4//1
f 4//1 15//1 3//1
f 3//1 15//1 2//1
f 130//1 127//1 129//1
f 133//1 127//1 130//1
f 124//1 125//1 126//1
f 123//1 124//1 126//1
f 135//1 123//1 126//1
f 135//1 126//1 127//1
f 134//1 127//1 133//1
f 135//1 127//1 134//1
f 132//1 130//1 131//1
f 132//1 131//1 122//1
f 132//1 122//1 123//1
f 137//1 132//1 123//1
f 136//1 123//1 135//1
f 137//1 123//1 136//1
f 139//1 140//1 138//1
f 138//1 143//1 145//1
f 141//1 142//1 143//1
f 140//1 143//1 138//1
f 141//1 143//1 140//1
f 103//1 105//1 106//1
f 101//1 102//1 103//1
f 103//1 106//1 111//1
f 100//1 101//1 103//1
f 121//1 107//1 108//1
f 109//1 93//1 94//1
f 97//1 95//1 96//1
f 98//1 95//1 97//1
f 99//1 95//1 98//1
f 99//1 94//1 95//1
f 100//1 94//1 99//1
f 103//1 94//1 100//1
f 120//1 121//1 108//1
f 120//1 108//1 109//1
f 120//1 109//1 94//1
f 119//1 120//1 94//1
f 118//1 119//1 94//1
f 117//1 118//1 94//1
f 116//1 117//1 94//1
f 111//1 112//1 103//1
f 94//1 115//1 116//1
f 94//1 114//1 115//1
f 103//1 114//1 94//1
f 112//1 113//1 103//1
f 103//1 113//1 114//1
f 188//1 146//1 148//1
f 165//1 166//1 167//1
f 180//1 181//1 182//1
f 179//1 180//1 182//1
f 164//1 165//1 167//1
f 186//1 187//1 188//1
f 185//1 186//1 188//1
f 161//1 162//1 163//1
f 158//1 159//1 160//1
f 171//1 169//1 170//1
f 172//1 169//1 171//1
f 179//1 182//1 183//1
f 179//1 183//1 184//1
f 161//1 163//1 164//1
f 173//1 169//1 172//1
f 164//1 167//1 168//1
f 179//1 184//1 185//1
f 160//1 161//1 164//1
f 158//1 160//1 164//1
f 173//1 168//1 169//1
f 178//1 179//1 185//1
f 173//1 164//1 168//1
f 174//1 164//1 173//1
f 175//1 164//1 174//1
f 176//1 164//1 175//1
f 177//1 164//1 176//1
f 177//1 158//1 164//1
f 177//1 157//1 158//1
f 178//1 157//1 177//1
f 185//1 157//1 178//1
f 185//1 156//1 157//1
f 185//1 155//1 156//1
f 185//1 154//1 155//1
f 185//1 153//1 154//1
f 188//1 153//1 185//1
f 188//1 152//1 153//1
f 188//1 151//1 152//1
f 188//1 150//1 151//1
f 148//1 149//1 188//1
f 188//1 149//1 150//1
f 111//1 107//1 110//1
f 110//1 107//1 121//1
f 48//1 49//1 46//1
f 45//1 43//1 44//1
f 49//1 52//1 53//1
f 45//1 42//1 43//1
f 49//1 53//1 46//1
f 46//1 53//1 45//1
f 45//1 53//1 42//1
f 42//1 55//1 56//1
f 53//1 54//1 42//1
f 42//1 54//1 55//1
f 85//1 86//1 87//1
f 90//1 92//1 85//1
f 89//1 90//1 88//1
f 88//1 90//1 87//1
f 87//1 90//1 85//1
f 42//1 56//1 41//1
f 56//1 51//1 41//1
f 41//1 51//1 50//1
f 50//1 51//1 52//1
f 231//2 230//2 418//2
f 231//2 418//2 419//2
f 244//3 243//3 431//3
f 244//3 431//3 432//3
f 245//4 272//4 460//4
f 245//4 460//4 433//4
f 318//5 317//5 505//5
f 318//5 505//5 506//5
f 292//6 291//6 479//6
f 292//6 479//6 480//6
f 358//7 357//7 545//7
f 358//7 545//7 546//7
f 350//8 349//8 537//8
f 350//8 537//8 538//8
f 211//9 210//9 398//9
f 211//9 398//9 399//9
f 357//10 356//10 544//10
f 357//10 544//10 545//10
f 304//11 303//11 491//11
f 304//11 491//11 492//11
f 319//12 318//12 506//12
f 319//12 506//12 507//12
f 192//13 191//13 379//13
f 192//13 379//13 380//13
f 220//14 219//14 407//14
f 220//14 407//14 408//14
f 280//15 279//15 467//15
f 280//15 467//15 468//15
f 288//16 287//16 475//16
f 288//16 475//16 476//16
f 191//17 190//17 378//17
f 191//17 378//17 379//17
f 349//18 348//18 536//18
f 349//18 536//18 537//18
f 265//19 264//19 452//19
f 265//19 452//19 453//19
f 302//20 301//20 489//20
f 302//20 489//20 490//20
f 309//21 308//21 496//21
f 309//21 496//21 497//21
f 217//22 216//22 404//22
f 217//22 404//22 405//22
f 371//23 370//23 558//23
f 371//23 558//23 559//23
f 246//24 245//24 433//24
f 246//24 433//24 434//24
f 372//25 371//25 559//25
f 372//25 559//25 560//25
f 223//26 222//26 410//26
f 223//26 410//26 411//26
f 226//27 225//27 413//27
f 226//27 413//27 414//27
f 290//28 289//28 477//28
f 290//28 477//28 478//28
f 373//29 372//29 560//29
f 373//29 560//29 561//29
f 308//30 307//30 495//30
f 308//30 495//30 496//30
f 316//31 315//31 503//31
f 316//31 503//31 504//31
f 230//32 229//32 417//32
f 230//32 417//32 418//32
f 270//33 269//33 457//33
f 270//33 457//33 458//33
f 331//34 330//34 518//34
f 331//34 518//34 519//34
f 364//35 363//35 551//35
f 364//35 551//35 552//35
f 326//36 333//36 521//36
f 326//36 521//36 514//36
f 248//37 247//37 435//37
f 248//37 435//37 436//37
f 251//38 250//38 438//38
f 251//38 438//38 439//38
f 189//39 203//39 391//39
f 189//39 391//39 377//39
f 370//40 369//40 557//40
f 370//40 557//40 558//40
f 324//41 323//41 511//41
f 324//41 511//41 512//41
f 252//42 251//42 439//42
f 252//42 439//42 440//42
f 375//43 374//43 562//43
f 375//43 562//43 563//43
f 196//44 195//44 383//44
f 196//44 383//44 384//44
f 234//45 233//45 421//45
f 234//45 421//45 422//45
f 200//46 199//46 387//46
f 200//46 387//46 388//46
f 277//47 276//47 464//47
f 277//47 464//47 465//47
f 320//48 325//48 513//48
f 320//48 513//48 508//48
f 287//49 286//49 474//49
f 287//49 474//49 475//49
f 360//50 359//50 547//50
f 360//50 547//50 548//50
f 303//51 302//51 490//51
f 303//51 490//51 491//51
f 249//52 248//52 436//52
f 249//52 436//52 437//52
f 268//53 267//53 455//53
f 268//53 455//53 456//53
f 207//54 206//54 394//54
f 207//54 394//54 395//54
f 221//55 220//55 408//55
f 221//55 408//55 409//55
f 262//56 261//56 449//56
f 262//56 449//56 450//56
f 235//57 234//57 422//57
f 235//57 422//57 423//57
f 198//58 197//58 385//58
f 198//58 385//58 386//58
f 330//59 329//59 517//59
f 330//59 517//59 518//59
f 354//60 353//60 541//60
f 354//60 541//60 542//60
f 281//61 297//61 485//61
f 281//61 485//61 469//61
f 240//62 239//62 427//62
f 240//62 427//62 428//62
f 365//63 364//63 552//63
f 365//63 552//63 553//63
f 241//64 240//64 428//64
f 241//64 428//64 429//64
f 216//65 215//65 403//65
f 216//65 403//65 404//65
f 298//66 309//66 497//66
f 298//66 497//66 486//66
f 322//67 321//67 509//67
f 322//67 509//67 510//67
f 282//68 281//68 469//68
f 282//68 469//68 470//68
f 295//69 294//69 482//69
f 295//69 482//69 483//69
f 369//70 368//70 556//70
f 369//70 556//70 557//70
f 214//71 213//71 401//71
f 214//71 401//71 402//71
f 355//72 354//72 542//72
f 355//72 542//72 543//72
f 278//34 277//34 465//34
f 278//34 465//34 466//34
f 327//73 326//73 514//73
f 327//73 514//73 515//73
f 259//74 258//74 446//74
f 259//74 446//74 447//74
f 361//75 360//75 548//75
f 361//75 548//75 549//75
f 219//76 218//76 406//76
f 219//76 406//76 407//76
f 317//77 316//77 504//77
f 317//77 504//77 505//77
f 311//32 310//32 498//32
f 311//32 498//32 499//32
f 269//78 268//78 456//78
f 269//78 456//78 457//78
f 296//79 295//79 483//79
f 296//79 483//79 484//79
f 275//80 274//80 462//80
f 275//80 462//80 463//80
f 352//81 351//81 539//81
f 352//81 539//81 540//81
f 218//82 217//82 405//82
f 218//82 405//82 406//82
f 300//83 299//83 487//83
f 300//83 487//83 488//83
f 305//84 304//84 492//84
f 305//84 492//84 493//84
f 343//85 342//85 530//85
f 343//85 530//85 531//85
f 255//86 254//86 442//86
f 255//86 442//86 443//86
f 313//87 312//87 500//87
f 313//87 500//87 501//87
f 236//77 235//77 423//77
f 236//77 423//77 424//77
f 284//88 283//88 471//88
f 284//88 471//88 472//88
f 315//45 314//45 502//45
f 315//45 502//45 503//45
f 206//89 205//89 393//89
f 206//89 393//89 394//89
f 325//90 324//90 512//90
f 325//90 512//90 513//90
f 264//91 263//91 451//91
f 264//91 451//91 452//91
f 273//36 280//36 468//36
f 273//36 468//36 461//36
f 362//92 361//92 549//92
f 362//92 549//92 550//92
f 208//93 207//93 395//93
f 208//93 395//93 396//93
f 297//94 296//94 484//94
f 297//94 484//94 485//94
f 376//95 375//95 563//95
f 376//95 563//95 564//95
f 353//96 352//96 540//96
f 353//96 540//96 541//96
f 301//97 300//97 488//97
f 301//97 488//97 489//97
f 274//98 273//98 461//98
f 274//98 461//98 462//98
f 340//99 339//99 527//99
f 340//99 527//99 528//99
f 334//100 376//100 564//100
f 334//100 564//100 522//100
f 225//101 224//101 412//101
f 225//101 412//101 413//101
f 197//102 196//102 384//102
f 197//102 384//102 385//102
f 237//103 236//103 424//103
f 237//103 424//103 425//103
f 205//104 204//104 392//104
f 205//104 392//104 393//104
f 359//105 358//105 546//105
f 359//105 546//105 547//105
f 242//106 241//106 429//106
f 242//106 429//106 430//106
f 256//107 255//107 443//107
f 256//107 443//107 444//107
f 263//108 262//108 450//108
f 263//108 450//108 451//108
f 222//109 221//109 409//109
f 222//109 409//109 410//109
f 247//110 246//110 434//110
f 247//110 434//110 435//110
f 190//111 189//111 377//111
f 190//111 377//111 378//111
f 299//112 298//112 486//112
f 299//112 486//112 487//112
f 229//113 238//113 426//113
f 229//113 426//113 417//113
f 233//114 232//114 420//114
f 233//114 420//114 421//114
f 368//115 367//115 555//115
f 368//115 555//115 556//115
f 306//116 305//116 493//116
f 306//116 493//116 494//116
f 253//117 252//117 440//117
f 253//117 440//117 441//117
f 260//118 259//118 447//118
f 260//118 447//118 448//118
f 266//119 265//119 453//119
f 266//119 453//119 454//119
f 202//120 201//120 389//120
f 202//120 389//120 390//120
f 195//121 194//121 382//121
f 195//121 382//121 383//121
f 344//122 343//122 531//122
f 344//122 531//122 532//122
f 374//123 373//123 561//123
f 374//123 561//123 562//123
f 285//124 284//124 472//124
f 285//124 472//124 473//124
f 333//125 332//125 520//125
f 333//125 520//125 521//125
f 329//126 328//126 516//126
f 329//126 516//126 517//126
f 356//127 355//127 543//127
f 356//127 543//127 544//127
f 213//128 212//128 400//128
f 213//128 400//128 401//128
f 224//129 223//129 411//129
f 224//129 411//129 412//129
f 267//130 266//130 454//130
f 267//130 454//130 455//130
f 272//131 271//131 459//131
f 272//131 459//131 460//131
f 337//132 336//132 524//132
f 337//132 524//132 525//132
f 293//133 292//133 480//133
f 293//133 480//133 481//133
f 250//134 249//134 437//134
f 250//134 437//134 438//134
f 307//135 306//135 494//135
f 307//135 494//135 495//135
f 194//136 193//136 381//136
f 194//136 381//136 382//136
f 232//87 231//87 419//87
f 232//87 419//87 420//87
f 348//137 347//137 535//137
f 348//137 535//137 536//137
f 323//138 322//138 510//138
f 323//138 510//138 511//138
f 238//139 237//139 425//139
f 238//139 425//139 426//139
f 339//140 338//140 526//140
f 339//140 526//140 527//140
f 254//141 253//141 441//141
f 254//141 441//141 442//141
f 261//142 260//142 448//142
f 261//142 448//142 449//142
f 342//143 341//143 529//143
f 342//143 529//143 530//143
f 215//144 214//144 402//144
f 215//144 402//144 403//144
f 338//145 337//145 525//145
f 338//145 525//145 526//145
f 335//146 334//146 522//146
f 335//146 522//146 523//146
f 346//147 345//147 533//147
f 346//147 533//147 534//147
f 341//148 340//148 528//148
f 341//148 528//148 529//148
f 227//149 226//149 414//149
f 227//149 414//149 415//149
f 336//150 335//150 523//150
f 336//150 523//150 524//150
f 276//126 275//126 463//126
f 276//126 463//126 464//126
f 257//151 256//151 444//151
f 257//151 444//151 445//151
f 312//152 311//152 499//152
f 312//152 499//152 500//152
f 321//153 320//153 508//153
f 321//153 508//153 509//153
f 209//154 208//154 396//154
f 209//154 396//154 397//154
f 204//155 228//155 416//155
f 204//155 416//155 392//155
f 258//156 257//156 445//156
f 258//156 445//156 446//156
f 294//157 293//157 481//157
f 294//157 481//157 482//157
f 212//65 211//65 399//65
f 212//65 399//65 400//65
f 271//158 270//158 458//158
f 271//158 458//158 459//158
f 347//159 346//159 534//159
f 347//159 534//159 535//159
f 351//160 350//160 538//160
f 351//160 538//160 539//160
f 367//161 366//161 554//161
f 367//161 554//161 555//161
f 332//162 331//162 519//162
f 332//162 519//162 520//162
f 366//163 365//163 553//163
f 366//163 553//163 554//163
f 239//164 244//164 432//164
f 239//164 432//164 427//164
f 243//165 242//165 430//165
f 243//165 430//165 431//165
f 228//166 227//166 415//166
f 228//166 415//166 416//166
f 210//167 209//167 397//167
f 210//167 397//167 398//167
f 199//168 198//168 386//168
f 199//168 386//168 387//168
f 19//169 18//169 206//169
f 19//169 206//169 207//169
f 80//169 79//169 267//169
f 80//169 267//169 268//169
f 61//169 60//169 248//169
f 61//169 248//169 249//169
f 115//169 114//169 302//169
f 115//169 302//169 303//169
f 172//169 171//169 359//169
f 172//169 359//169 360//169
f 99//169 98//169 286//169
f 99//169 286//169 287//169
f 132//169 137//169 325//169
f 132//169 325//169 320//169
f 12//169 11//169 199//169
f 12//169 199//169 200//169
f 46//169 45//169 233//169
f 46//169 233//169 234//169
f 8//169 7//169 195//169
f 8//169 195//169 196//169
f 88//169 87//169 275//169
f 88//169 275//169 276//169
f 187//169 186//169 374//169
f 187//169 374//169 375//169
f 64//169 63//169 251//169
f 64//169 251//169 252//169
f 136//169 135//169 323//169
f 136//169 323//169 324//169
f 1//169 15//169 203//169
f 1//169 203//169 189//169
f 63//169 62//169 250//169
f 63//169 250//169 251//169
f 60//169 59//169 247//169
f 60//169 247//169 248//169
f 138//169 145//169 333//169
f 138//169 333//169 326//169
f 176//169 175//169 363//169
f 176//169 363//169 364//169
f 143//169 142//169 330//169
f 143//169 330//169 331//169
f 82//169 81//169 269//169
f 82//169 269//169 270//169
f 42//169 41//169 229//169
f 42//169 229//169 230//169
f 128//169 127//169 315//169
f 128//169 315//169 316//169
f 120//169 119//169 307//169
f 120//169 307//169 308//169
f 102//169 101//169 289//169
f 102//169 289//169 290//169
f 38//169 37//169 225//169
f 38//169 225//169 226//169
f 35//169 34//169 222//169
f 35//169 222//169 223//169
f 58//169 57//169 245//169
f 58//169 245//169 246//169
f 29//169 28//169 216//169
f 29//169 216//169 217//169
f 121//169 120//169 308//169
f 121//169 308//169 309//169
f 114//169 113//169 301//169
f 114//169 301//169 302//169
f 77//169 76//169 264//169
f 77//169 264//169 265//169
f 161//169 160//169 348//169
f 161//169 348//169 349//169
f 3//169 2//169 190//169
f 3//169 190//169 191//169
f 92//169 91//169 279//169
f 92//169 279//169 280//169
f 32//169 31//169 219//169
f 32//169 219//169 220//169
f 4//169 3//169 191//169
f 4//169 191//169 192//169
f 131//169 130//169 318//169
f 131//169 318//169 319//169
f 116//169 115//169 303//169
f 116//169 303//169 304//169
f 169//169 168//169 356//169
f 169//169 356//169 357//169
f 23//169 22//169 210//169
f 23//169 210//169 211//169
f 186//169 185//169 373//169
f 186//169 373//169 374//169
f 162//169 161//169 349//169
f 162//169 349//169 350//169
f 170//169 169//169 357//169
f 170//169 357//169 358//169
f 104//169 103//169 291//169
f 104//169 291//169 292//169
f 130//169 129//169 317//169
f 130//169 317//169 318//169
f 72//169 71//169 259//169
f 72//169 259//169 260//169
f 56//169 55//169 243//169
f 56//169 243//169 244//169
f 157//169 156//169 344//169
f 157//169 344//169 345//169
f 180//169 179//169 367//169
f 180//169 367//169 368//169
f 101//169 100//169 288//169
f 101//169 288//169 289//169
f 122//169 131//169 319//169
f 122//169 319//169 310//169
f 5//169 4//169 192//169
f 5//169 192//169 193//169
f 98//169 97//169 285//169
f 98//169 285//169 286//169
f 95//169 94//169 282//169
f 95//169 282//169 283//169
f 140//169 139//169 327//169
f 140//169 327//169 328//169
f 126//169 125//169 313//169
f 126//169 313//169 314//169
f 15//169 14//169 202//169
f 15//169 202//169 203//169
f 103//169 102//169 290//169
f 103//169 290//169 291//169
f 91//169 90//169 278//169
f 91//169 278//169 279//169
f 13//169 12//169 200//169
f 13//169 200//169 201//169
f 11//169 10//169 198//169
f 11//169 198//169 199//169
f 146//169 188//169 376//169
f 146//169 376//169 334//169
f 22//169 21//169 209//169
f 22//169 209//169 210//169
f 40//169 39//169 227//169
f 40//169 227//169 228//169
f 86//169 85//169 273//169
f 86//169 273//169 274//169
f 55//169 54//169 242//169
f 55//169 242//169 243//169
f 51//169 56//169 244//169
f 51//169 244//169 239//169
f 178//169 177//169 365//169
f 178//169 365//169 366//169
f 144//169 143//169 331//169
f 144//169 331//169 332//169
f 179//169 178//169 366//169
f 179//169 366//169 367//169
f 163//169 162//169 350//169
f 163//169 350//169 351//169
f 159//169 158//169 346//169
f 159//169 346//169 347//169
f 83//169 82//169 270//169
f 83//169 270//169 271//169
f 24//169 23//169 211//169
f 24//169 211//169 212//169
f 106//169 105//169 293//169
f 106//169 293//169 294//169
f 70//169 69//169 257//169
f 70//169 257//169 258//169
f 16//169 40//169 228//169
f 16//169 228//169 204//169
f 21//169 20//169 208//169
f 21//169 208//169 209//169
f 133//169 132//169 320//169
f 133//169 320//169 321//169
f 124//169 123//169 311//169
f 124//169 311//169 312//169
f 69//169 68//169 256//169
f 69//169 256//169 257//169
f 148//169 147//169 335//169
f 148//169 335//169 336//169
f 39//169 38//169 226//169
f 39//169 226//169 227//169
f 153//169 152//169 340//169
f 153//169 340//169 341//169
f 158//169 157//169 345//169
f 158//169 345//169 346//169
f 147//169 146//169 334//169
f 147//169 334//169 335//169
f 150//169 149//169 337//169
f 150//169 337//169 338//169
f 27//169 26//169 214//169
f 27//169 214//169 215//169
f 112//169 111//169 299//169
f 112//169 299//169 300//169
f 154//169 153//169 341//169
f 154//169 341//169 342//169
f 73//169 72//169 260//169
f 73//169 260//169 261//169
f 66//169 65//169 253//169
f 66//169 253//169 254//169
f 151//169 150//169 338//169
f 151//169 338//169 339//169
f 71//169 70//169 258//169
f 71//169 258//169 259//169
f 139//169 138//169 326//169
f 139//169 326//169 327//169
f 50//169 49//169 237//169
f 50//169 237//169 238//169
f 135//169 134//169 322//169
f 135//169 322//169 323//169
f 181//169 180//169 368//169
f 181//169 368//169 369//169
f 160//169 159//169 347//169
f 160//169 347//169 348//169
f 44//169 43//169 231//169
f 44//169 231//169 232//169
f 6//169 5//169 193//169
f 6//169 193//169 194//169
f 119//169 118//169 306//169
f 119//169 306//169 307//169
f 62//169 61//169 249//169
f 62//169 249//169 250//169
f 105//169 104//169 292//169
f 105//169 292//169 293//169
f 53//169 52//169 240//169
f 53//169 240//169 241//169
f 149//169 148//169 336//169
f 149//169 336//169 337//169
f 84//169 83//169 271//169
f 84//169 271//169 272//169
f 79//169 78//169 266//169
f 79//169 266//169 267//169
f 36//169 35//169 223//169
f 36//169 223//169 224//169
f 25//169 24//169 212//169
f 25//169 212//169 213//169
f 168//169 167//169 355//169
f 168//169 355//169 356//169
f 141//169 140//169 328//169
f 141//169 328//169 329//169
f 145//169 144//169 332//169
f 145//169 332//169 333//169
f 52//169 51//169 239//169
f 52//169 239//169 240//169
f 97//169 96//169 284//169
f 97//169 284//169 285//169
f 156//169 155//169 343//169
f 156//169 343//169 344//169
f 7//169 6//169 194//169
f 7//169 194//169 195//169
f 14//169 13//169 201//169
f 14//169 201//169 202//169
f 78//169 77//169 265//169
f 78//169 265//169 266//169
f 65//169 64//169 252//169
f 65//169 252//169 253//169
f 118//169 117//169 305//169
f 118//169 305//169 306//169
f 45//169 44//169 232//169
f 45//169 232//169 233//169
f 41//169 50//169 238//169
f 41//169 238//169 229//169
f 111//169 110//169 298//169
f 111//169 298//169 299//169
f 2//169 1//169 189//169
f 2//169 189//169 190//169
f 59//169 58//169 246//169
f 59//169 246//169 247//169
f 34//169 33//169 221//169
f 34//169 221//169 222//169
f 75//169 74//169 262//169
f 75//169 262//169 263//169
f 89//169 88//169 276//169
f 89//169 276//169 277//169
f 68//169 67//169 255//169
f 68//169 255//169 256//169
f 54//169 53//169 241//169
f 54//169 241//169 242//169
f 171//169 170//169 358//169
f 171//169 358//169 359//169
f 17//169 16//169 204//169
f 17//169 204//169 205//169
f 49//169 48//169 236//169
f 49//169 236//169 237//169
f 9//169 8//169 196//169
f 9//169 196//169 197//169
f 37//169 36//169 224//169
f 37//169 224//169 225//169
f 152//169 151//169 339//169
f 152//169 339//169 340//169
f 182//169 181//169 369//169
f 182//169 369//169 370//169
f 113//169 112//169 300//169
f 113//169 300//169 301//169
f 165//169 164//169 352//169
f 165//169 352//169 353//169
f 188//169 187//169 375//169
f 188//169 375//169 376//169
f 109//169 108//169 296//169
f 109//169 296//169 297//169
f 20//169 19//169 207//169
f 20//169 207//169 208//169
f 185//169 184//169 372//169
f 185//169 372//169 373//169
f 174//169 173//169 361//169
f 174//169 361//169 362//169
f 85//169 92//169 280//169
f 85//169 280//169 273//169
f 184//169 183//169 371//169
f 184//169 371//169 372//169
f 183//169 182//169 370//169
f 183//169 370//169 371//169
f 76//169 75//169 263//169
f 76//169 263//169 264//169
f 137//169 136//169 324//169
f 137//169 324//169 325//169
f 18//169 17//169 205//169
f 18//169 205//169 206//169
f 127//169 126//169 314//169
f 127//169 314//169 315//169
f 100//169 99//169 287//169
f 100//169 287//169 288//169
f 96//169 95//169 283//169
f 96//169 283//169 284//169
f 48//169 47//169 235//169
f 48//169 235//169 236//169
f 125//169 124//169 312//169
f 125//169 312//169 313//169
f 67//169 66//169 254//169
f 67//169 254//169 255//169
f 155//169 154//169 342//169
f 155//169 342//169 343//169
f 117//169 116//169 304//169
f 117//169 304//169 305//169
f 30//169 29//169 217//169
f 30//169 217//169 218//169
f 57//169 84//169 272//169
f 57//169 272//169 245//169
f 164//169 163//169 351//169
f 164//169 351//169 352//169
f 43//169 42//169 230//169
f 43//169 230//169 231//169
f 87//169 86//169 274//169
f 87//169 274//169 275//169
f 108//169 107//169 295//169
f 108//169 295//169 296//169
f 81//169 80//169 268//169
f 81//169 268//169 269//169
f 123//169 122//169 310//169
f 123//169 310//169 311//169
f 129//169 128//169 316//169
f 129//169 316//169 317//169
f 31//169 30//169 218//169
f 31//169 218//169 219//169
f 173//169 172//169 360//169
f 173//169 360//169 361//169
f 90//169 89//169 277//169
f 90//169 277//169 278//169
f 175//169 174//169 362//169
f 175//169 362//169 363//169
f 167//169 166//169 354//169
f 167//169 354//169 355//169
f 26//169 25//169 213//169
f 26//169 213//169 214//169
f 107//169 106//169 294//169
f 107//169 294//169 295//169
f 94//169 93//169 281//169
f 94//169 281//169 282//169
f 134//169 133//169 321//169
f 134//169 321//169 322//169
f 110//169 121//169 309//169
f 110//169 309//169 298//169
f 28//169 27//169 215//169
f 28//169 215//169 216//169
f 177//169 176//169 364//169
f 177//169 364//169 365//169
f 93//169 109//169 297//169
f 93//169 297//169 281//169
f 166//169 165//169 353//169
f 166//169 353//169 354//169
f 142//169 141//169 329//169
f 142//169 329//169 330//169
f 10//169 9//169 197//169
f 10//169 197//169 198//169
f 47//169 46//169 234//169
f 47//169 234//169 235//169
f 74//169 73//169 261//169
f 74//169 261//169 262//169
f 33//169 32//169 220//169
f 33//169 220//169 221//169
f 449//170 451//170 450//170
f 413//170 415//170 414//170
f 382//170 381//170 383//170
f 505//170 504//170 503//170
f 508//170 506//170 509//170
f 521//170 520//170 519//170
f 479//170 481//170 480//170
f 522//170 524//170 523//170
f 482//170 487//170 483//170
f 423//170 422//170 424//170
f 466//170 468//170 467//170
f 426//170 425//170 428//170
f 449//170 452//170 451//170
f 455//170 457//170 456//170
f 455//170 458//170 457//170
f 446//170 448//170 447//170
f 446//170 449//170 448//170
f 455//170 459//170 458//170
f 433//170 460//170 434//170
f 460//170 459//170 434//170
f 455//170 454//170 453//170
f 455//170 453//170 452//170
f 434//170 459//170 435//170
f 435//170 459//170 436//170
f 436//170 459//170 437//170
f 459//170 455//170 437//170
f 437//170 455//170 438//170
f 438//170 455//170 439//170
f 439//170 455//170 440//170
f 440//170 455//170 441//170
f 455//170 452//170 441//170
f 441//170 452//170 442//170
f 442//170 452//170 443//170
f 443//170 452//170 444//170
f 449//170 446//170 445//170
f 452//170 449//170 445//170
f 444//170 452//170 445//170
f 405//170 407//170 406//170
f 410//170 412//170 411//170
f 393//170 395//170 394//170
f 410//170 413//170 412//170
f 415//170 392//170 416//170
f 401//170 403//170 402//170
f 400//170 403//170 401//170
f 405//170 408//170 407//170
f 405//170 409//170 408//170
f 405//170 410//170 409//170
f 393//170 396//170 395//170
f 405//170 413//170 410//170
f 404//170 413//170 405//170
f 404//170 415//170 413//170
f 403//170 415//170 404//170
f 400//170 415//170 403//170
f 400//170 392//170 415//170
f 400//170 399//170 392//170
f 392//170 399//170 393//170
f 399//170 398//170 393//170
f 398//170 397//170 393//170
f 397//170 396//170 393//170
f 383//170 381//170 384//170
f 388//170 390//170 389//170
f 391//170 378//170 377//170
f 384//170 381//170 385//170
f 387//170 390//170 388//170
f 386//170 390//170 387//170
f 385//170 390//170 386//170
f 385//170 391//170 390//170
f 385//170 381//170 391//170
f 381//170 380//170 391//170
f 380//170 379//170 391//170
f 379//170 378//170 391//170
f 506//170 505//170 503//170
f 509//170 506//170 503//170
f 500//170 502//170 501//170
f 499//170 502//170 500//170
f 511//170 502//170 499//170
f 511//170 503//170 502//170
f 510//170 509//170 503//170
f 511//170 510//170 503//170
f 508//170 507//170 506//170
f 508//170 498//170 507//170
f 508//170 499//170 498//170
f 513//170 499//170 508//170
f 512//170 511//170 499//170
f 513//170 512//170 499//170
f 515//170 514//170 516//170
f 514//170 521//170 519//170
f 517//170 519//170 518//170
f 516//170 514//170 519//170
f 517//170 516//170 519//170
f 479//170 482//170 481//170
f 477//170 479//170 478//170
f 479//170 487//170 482//170
f 476//170 479//170 477//170
f 497//170 484//170 483//170
f 485//170 470//170 469//170
f 473//170 472//170 471//170
f 474//170 473//170 471//170
f 475//170 474//170 471//170
f 475//170 471//170 470//170
f 476//170 475//170 470//170
f 479//170 476//170 470//170
f 496//170 484//170 497//170
f 496//170 485//170 484//170
f 496//170 470//170 485//170
f 495//170 470//170 496//170
f 494//170 470//170 495//170
f 493//170 470//170 494//170
f 492//170 470//170 493//170
f 487//170 479//170 488//170
f 470//170 492//170 491//170
f 470//170 491//170 490//170
f 479//170 470//170 490//170
f 488//170 479//170 489//170
f 479//170 490//170 489//170
f 564//170 524//170 522//170
f 541//170 543//170 542//170
f 556//170 558//170 557//170
f 555//170 558//170 556//170
f 540//170 543//170 541//170
f 562//170 564//170 563//170
f 561//170 564//170 562//170
f 537//170 539//170 538//170
f 534//170 536//170 535//170
f 547//170 546//170 545//170
f 548//170 547//170 545//170
f 555//170 559//170 558//170
f 555//170 560//170 559//170
f 537//170 540//170 539//170
f 549//170 548//170 545//170
f 540//170 544//170 543//170
f 555//170 561//170 560//170
f 536//170 540//170 537//170
f 534//170 540//170 536//170
f 549//170 545//170 544//170
f 554//170 561//170 555//170
f 549//170 544//170 540//170
f 550//170 549//170 540//170
f 551//170 550//170 540//170
f 552//170 551//170 540//170
f 553//170 552//170 540//170
f 553//170 540//170 534//170
f 553//170 534//170 533//170
f 554//170 553//170 533//170
f 561//170 554//170 533//170
f 561//170 533//170 532//170
f 561//170 532//170 531//170
f 561//170 531//170 530//170
f 561//170 530//170 529//170
f 564//170 561//170 529//170
f 564//170 529//170 528//170
f 564//170 528//170 527//170
f 564//170 527//170 526//170
f 524//170 564//170 525//170
f 564//170 526//170 525//170
f 487//170 486//170 483//170
f 486//170 497//170 483//170
f 424//170 422//170 425//170
f 421//170 420//170 419//170
f 425//170 429//170 428//170
f 421//170 419//170 418//170
f 425//170 422//170 429//170
f 422//170 421//170 429//170
f 421//170 418//170 429//170
f 418//170 432//170 431//170
f 429//170 418//170 430//170
f 418//170 431//170 430//170
f 461//170 463//170 462//170
f 466//170 461//170 468//170
f 465//170 464//170 466//170
f 464//170 463//170 466//170
f 463//170 461//170 466//170
f 418//170 417//170 432//170
f 432//170 417//170 427//170
f 417//170 426//170 427//170
f 426//170 428//170 427//170
f 345//171 344//171 532//171
f 345//171 532//171 533//171
f 289//172 288//172 476//172
f 289//172 476//172 477//172
f 310//113 319//113 507//113
f 310//113 507//113 498//113
f 193//173 192//173 380//173
f 193//173 380//173 381//173
f 286//174 285//174 473//174
f 286//174 473//174 474//174
f 283//175 282//175 470//175
f 283//175 470//175 471//175
f 328//80 327//80 515//80
f 328//80 515//80 516//80
f 314//114 313//114 501//114
f 314//114 501//114 502//114
f 203//176 202//176 390//176
f 203//176 390//176 391//176
f 291//177 290//177 478//177
f 291//177 478//177 479//177
f 279//178 278//178 466//178
f 279//178 466//178 467//178
f 363//179 362//179 550//179
f 363//179 550//179 551//179
f 201//180 200//180 388//180
f 201//180 388//180 389//180
